<?xml version="1.0" encoding="UTF-8"?>
<svg width="24px" height="10px" viewBox="0 0 24 10" version="1.1" xmlns="http://www.w3.org/2000/svg" xmlns:xlink="http://www.w3.org/1999/xlink">
    <!-- Generator: Sketch 51.1 (57501) - http://www.bohemiancoding.com/sketch -->
    <title>Fill 1</title>
    <desc>Created with Sketch.</desc>
    <defs></defs>
    <g id="Symbols" stroke="none" stroke-width="1" fill="none" fill-rule="evenodd">
        <g id="arrows_carousel" transform="translate(-12.000000, -19.000000)" fill="#FFFFFF">
            <g id="arrows">
                <polygon id="Fill-1" points="16.999 19 12 23.999 16.999 29 16.999 25.083 36 25.083 36 23.082 16.999 23.082"></polygon>
            </g>
        </g>
    </g>
</svg>