<?xml version="1.0" encoding="UTF-8"?>
<svg width="15px" height="13px" viewBox="0 0 15 13" version="1.1" xmlns="http://www.w3.org/2000/svg" xmlns:xlink="http://www.w3.org/1999/xlink">
    <!-- Generator: Sketch 51.2 (57519) - http://www.bohemiancoding.com/sketch -->
    <title>bulletpaw</title>
    <desc>Created with Sketch.</desc>
    <defs></defs>
    <g id="Desktop" stroke="none" stroke-width="1" fill="none" fill-rule="evenodd">
        <g id="Desktop---Ticks" transform="translate(-74.000000, -1065.000000)" fill="#FFFFFF" fill-rule="nonzero">
            <g id="Group-7" transform="translate(0.000000, 644.000000)">
                <g id="Group-2" transform="translate(74.000000, 102.000000)">
                    <g id="Group-3">
                        <g id="paw" transform="translate(0.000000, 85.000000)">
                            <g id="bulletpaw" transform="translate(0.000000, 234.000000)">
                                <path d="M13.5,8 C12.6730118,8 12,7.1030285 12,6 C12,4.89726841 12.6730118,4 13.5,4 C14.3269882,4 15,4.89726841 15,6 C15,7.1030285 14.3269882,8 13.5,8" id="Fill-1"></path>
                                <path d="M1.5,8 C0.672712777,8 0,7.1030285 0,6 C0,4.89726841 0.672712777,4 1.5,4 C2.32698824,4 3,4.89726841 3,6 C3,7.1030285 2.32698824,8 1.5,8" id="Fill-4"></path>
                                <path d="M5,6 C3.89697909,6 3,4.65403918 3,2.99983811 C3,1.34563704 3.89697909,0 5,0 C6.10271108,0 7,1.34563704 7,2.99983811 C7,4.65403918 6.10271108,6 5,6" id="Fill-6"></path>
                                <path d="M10,6 C8.89697909,6 8,4.65403918 8,2.99983811 C8,1.34563704 8.89697909,0 10,0 C11.1027111,0 12,1.34563704 12,2.99983811 C12,4.65403918 11.1027111,6 10,6" id="Fill-8"></path>
                                <path d="M10.4929286,13 C9.98149328,13 9.50933299,12.7486779 9.22924763,12.3277484 L9.10597566,12.1418543 L9.08848825,12.148032 C8.69516468,11.6925633 8.11635981,11.4263584 7.5,11.4263584 C7.03099318,11.4263584 6.58807415,11.5757476 6.21940498,11.8579585 C6.10100656,11.9486591 5.99378862,12.0508728 5.8986112,12.1631956 L5.88685736,12.1592643 L5.76387208,12.3381383 C5.48321335,12.7526092 5.0133465,13 4.50678474,13 C3.67598904,13 3,12.3378574 3,11.5240792 C3,11.4915056 3.00143339,11.4594936 3.00344015,11.4274816 L3.0177741,11.2112604 L3.00458686,11.2070483 C3.11209148,8.86961202 5.08730968,7 7.5,7 C9.88488246,7 11.8426132,8.82692938 11.991113,11.1270183 L11.9807925,11.1270183 L11.9962732,11.4257968 C11.9982799,11.4583704 12,11.490944 12,11.5240792 C12,12.3378574 11.3237243,13 10.4929286,13" id="Fill-10"></path>
                            </g>
                        </g>
                    </g>
                </g>
            </g>
        </g>
    </g>
</svg>