<?xml version="1.0" encoding="UTF-8"?>
<svg width="26px" height="21px" viewBox="0 0 26 21" version="1.1" xmlns="http://www.w3.org/2000/svg" xmlns:xlink="http://www.w3.org/1999/xlink">
    <!-- Generator: Sketch 51.1 (57501) - http://www.bohemiancoding.com/sketch -->
    <title>Group</title>
    <desc>Created with Sketch.</desc>
    <defs>
        <polygon id="path-1" points="0.1625 0.736066558 1.02 0.736066558 1.02 1.73606656 0.1625 1.73606656"></polygon>
        <polygon id="path-3" points="4.83279793e-06 0.850077733 26.0194598 0.850077733 26.0194598 21 4.83279793e-06 21"></polygon>
    </defs>
    <g id="Desktop" stroke="none" stroke-width="1" fill="none" fill-rule="evenodd">
        <g id="Desktop---Product-Page---Dog-Spot-on-1" transform="translate(-318.000000, -865.000000)">
            <g id="size_tabs" transform="translate(0.000000, 827.000000)">
                <g id="2" transform="translate(296.000000, 28.000000)">
                    <g id="Group-3" transform="translate(22.000000, 9.000000)">
                        <g id="Group">
                            <g id="Group-3" transform="translate(25.000000, 3.150000)">
                                <mask id="mask-2" fill="white">
                                    <use xlink:href="#path-1"></use>
                                </mask>
                                <g id="Clip-2"></g>
                                <path d="M0.1645,0.7447 L0.1725,0.7467 L0.1735,0.7407 C0.1765,0.7337 0.1775,0.7357 0.1725,0.7397 C0.1705,0.7417 0.1665,0.7447 0.1665,0.7447 L0.1625,0.7447" id="Fill-1" fill="#FFFFFF" mask="url(#mask-2)"></path>
                            </g>
                            <path d="M8.9125,12.3693 C7.6035,14.2423 6.5835,15.2523 5.7645,15.9123 C5.2735,17.2543 5.4845,18.0943 5.7445,18.5693 C6.0355,19.1023 7.3065,18.5693 7.3065,18.5693 C7.4755,17.8843 6.4795,17.6093 6.4795,17.6093 C6.0815,16.7423 7.3065,15.9333 7.9655,15.4323 C8.4985,15.0233 9.6245,13.3403 10.0325,12.6833 C9.3485,12.2993 8.9125,12.3693 8.9125,12.3693" id="Fill-4" fill="#FFFFFF"></path>
                            <path d="M15.6908,13.6369 C15.6428,14.4589 15.5518,16.6209 15.8988,17.3779 C16.0778,16.1549 16.2948,13.7409 16.2948,13.7409 C16.1378,13.6679 15.9318,13.6389 15.6908,13.6369" id="Fill-6" fill="#FFFFFF"></path>
                            <path d="M17.7153,18.8107 C18.5563,18.9237 18.9353,18.4337 18.9353,18.4337 C18.9753,17.8917 18.1593,17.6917 17.8193,17.6297 C17.5293,18.4587 17.6253,18.7257 17.7153,18.8107" id="Fill-8" fill="#FFFFFF"></path>
                            <path d="M19.2895,3.8947 L19.2975,3.8967 L19.2995,3.8907 C19.3015,3.8837 19.3025,3.8857 19.2975,3.8897 C19.2955,3.8917 19.2915,3.8947 19.2915,3.8947 L19.2885,3.8947" id="Fill-10" fill="#FFFFFF"></path>
                            <g id="Group-14" transform="translate(0.000000, 0.150000)">
                                <mask id="mask-4" fill="white">
                                    <use xlink:href="#path-3"></use>
                                </mask>
                                <g id="Clip-13"></g>
                                <path d="M22.0903,4.4644 C22.0303,4.6164 21.9423,4.7584 21.8303,4.8794 C21.7193,4.9994 21.5833,5.1024 21.4293,5.1704 C21.3523,5.2064 21.2693,5.2324 21.1803,5.2414 C21.1353,5.2464 21.0893,5.2484 21.0433,5.2444 C21.0323,5.2424 21.0223,5.2414 21.0083,5.2404 L20.9923,5.2384 L20.9733,5.2354 C20.9493,5.2304 20.9273,5.2234 20.9043,5.2154 C20.8193,5.1844 20.7463,5.1414 20.6793,5.0934 C20.6113,5.0464 20.5493,4.9964 20.4903,4.9434 C20.3713,4.8394 20.2613,4.7294 20.1553,4.6154 C20.0493,4.5034 19.9463,4.3884 19.8453,4.2754 C19.7423,4.1614 19.6443,4.0464 19.5403,3.9394 C19.4883,3.8864 19.4363,3.8334 19.3833,3.7934 C19.3703,3.7834 19.3573,3.7734 19.3463,3.7664 C19.3383,3.7614 19.3343,3.7594 19.3293,3.7574 L19.3273,3.7564 L19.3253,3.7544 L19.3233,3.7534 L19.3193,3.7524 L19.3163,3.7504 C19.3073,3.7484 19.3023,3.7484 19.3023,3.7484 C19.2953,3.7534 19.2933,3.7604 19.2913,3.7714 C19.2893,3.7974 19.2913,3.8314 19.2953,3.8634 C19.2993,3.8984 19.3063,3.9334 19.3133,3.9684 C19.3173,3.9854 19.3203,4.0014 19.3253,4.0194 C19.3303,4.0364 19.3353,4.0544 19.3403,4.0694 L19.4343,4.3714 L19.1903,4.1744 C19.0693,4.0764 18.9593,3.9584 18.8823,3.8164 C18.8433,3.7464 18.8153,3.6704 18.7943,3.5934 C18.7743,3.5154 18.7653,3.4364 18.7653,3.3564 C18.7653,3.1974 18.8013,3.0434 18.8553,2.9014 C18.9093,2.7594 18.9833,2.6264 19.0643,2.5004 C19.2273,2.2504 19.4263,2.0294 19.6393,1.8244 C19.7443,1.7214 19.8563,1.6244 19.9693,1.5304 C20.0263,1.4854 20.0843,1.4394 20.1433,1.3954 C20.2003,1.3514 20.2603,1.3074 20.3203,1.2664 C20.2093,1.3604 20.1023,1.4604 19.9963,1.5604 C19.8913,1.6624 19.7903,1.7684 19.6923,1.8754 C19.5943,1.9834 19.5013,2.0934 19.4123,2.2094 C19.3253,2.3244 19.2423,2.4424 19.1713,2.5664 C19.1003,2.6904 19.0383,2.8184 18.9943,2.9494 C18.9503,3.0814 18.9253,3.2194 18.9303,3.3544 C18.9343,3.4854 18.9713,3.6164 19.0383,3.7294 C19.0533,3.7534 19.0803,3.7694 19.0973,3.7914 C19.0973,3.7784 19.0933,3.7694 19.0943,3.7544 C19.0973,3.7304 19.1003,3.7024 19.1113,3.6724 C19.1153,3.6594 19.1233,3.6434 19.1343,3.6264 C19.1453,3.6104 19.1583,3.5954 19.1763,3.5804 C19.1943,3.5674 19.2143,3.5574 19.2353,3.5524 C19.2553,3.5464 19.2733,3.5444 19.2913,3.5444 C19.3253,3.5444 19.3543,3.5504 19.3793,3.5584 L19.3883,3.5604 L19.3983,3.5654 L19.4013,3.5674 L19.4063,3.5694 L19.4123,3.5714 L19.4173,3.5734 C19.4303,3.5794 19.4423,3.5854 19.4423,3.5854 C19.4723,3.6044 19.4913,3.6184 19.5093,3.6304 C19.5763,3.6844 19.6333,3.7374 19.6893,3.7934 C19.8003,3.9054 19.9023,4.0214 20.0043,4.1344 C20.1063,4.2474 20.2063,4.3604 20.3123,4.4704 C20.4153,4.5794 20.5203,4.6874 20.6313,4.7854 C20.6863,4.8344 20.7433,4.8794 20.8013,4.9204 C20.8593,4.9614 20.9183,4.9974 20.9773,5.0194 C20.9903,5.0244 21.0053,5.0274 21.0193,5.0314 L21.0283,5.0334 L21.0413,5.0354 C21.0413,5.0354 21.0553,5.0364 21.0633,5.0384 C21.0933,5.0414 21.1243,5.0404 21.1563,5.0364 C21.2193,5.0314 21.2843,5.0114 21.3483,4.9854 C21.4743,4.9324 21.5893,4.8474 21.6863,4.7454 C21.7853,4.6444 21.8653,4.5254 21.9193,4.3954 C21.9753,4.2654 22.0063,4.1254 22.0083,3.9854 C22.0083,3.9134 22.0013,3.8424 21.9893,3.7724 C21.9843,3.7364 21.9753,3.7014 21.9653,3.6674 L21.9583,3.6424 L21.9503,3.6144 L21.9343,3.5604 C21.8873,3.4184 21.8333,3.2784 21.7733,3.1404 C21.7113,3.0024 21.6463,2.8644 21.5803,2.7274 C21.5153,2.5904 21.4473,2.4504 21.3873,2.3104 C21.3583,2.2394 21.3283,2.1674 21.3043,2.0954 C21.2783,2.0214 21.2573,1.9464 21.2413,1.8704 C21.2263,1.7944 21.2183,1.7164 21.2243,1.6394 C21.2293,1.5624 21.2483,1.4854 21.2843,1.4184 C21.2553,1.4874 21.2443,1.5664 21.2453,1.6404 C21.2473,1.7144 21.2623,1.7894 21.2823,1.8614 C21.3233,2.0064 21.3893,2.1424 21.4573,2.2774 C21.5253,2.4134 21.6003,2.5454 21.6743,2.6794 C21.7483,2.8144 21.8213,2.9474 21.8903,3.0874 C21.9583,3.2244 22.0243,3.3654 22.0783,3.5114 L22.0993,3.5674 L22.1073,3.5954 L22.1163,3.6224 C22.1293,3.6614 22.1393,3.7004 22.1483,3.7404 C22.1663,3.8204 22.1753,3.9014 22.1783,3.9844 C22.1813,4.1464 22.1523,4.3114 22.0903,4.4644 M25.6643,3.2014 C25.0063,3.0324 24.2863,2.9114 23.9653,2.7594 C23.6443,2.6074 23.5363,2.0734 23.5053,1.8294 C23.4753,1.5864 22.3043,1.1734 21.8673,1.0064 C21.3483,0.8084 20.1683,0.6264 19.1353,1.6104 C18.1043,2.5934 17.8713,4.6024 16.8923,5.8824 C16.5283,6.3564 15.5443,6.9794 12.1143,6.8864 C9.8343,6.8264 7.9793,6.7344 6.6233,7.3074 L6.6253,7.3074 C4.9713,7.9874 2.6743,9.3324 0.6223,7.8774 C0.5113,7.7984 0.2423,7.6254 0.0943,7.6414 C-0.1087,7.6614 -0.0407,8.0864 0.8703,8.6684 C1.9243,9.3414 3.5753,9.3914 4.7523,9.1944 L4.7343,9.2344 C4.1833,10.4834 4.7263,12.7974 4.2053,13.8644 C3.6863,14.9314 2.8243,16.0284 2.2993,16.3024 C2.2993,16.3024 0.2573,20.4694 2.2993,20.9634 C2.2993,20.9634 5.1493,21.3154 3.4403,19.8364 C3.4403,19.8364 1.9453,19.8364 2.9863,17.8864 C3.6113,16.7144 4.3923,16.5114 5.6253,15.5184 C6.4453,14.8584 7.4663,13.8494 8.7763,11.9754 C8.7763,11.9754 9.1543,11.8934 9.8943,12.2064 C10.2463,12.3574 10.6823,12.5974 11.1943,12.9814 C12.5273,13.9744 14.7153,13.3064 15.9513,13.3194 C16.1943,13.3204 16.3983,13.3504 16.5543,13.4224 C16.5543,13.4224 16.3373,15.8374 16.1593,17.0614 C16.1483,17.1384 16.1363,17.2094 16.1243,17.2774 C15.9433,18.4034 16.4923,21.4514 18.7893,20.1104 C18.7893,20.1104 19.0073,19.4854 17.5653,18.8604 C17.5653,18.8604 17.5273,18.8614 17.4833,18.8254 C17.3913,18.7434 17.2813,18.4854 17.5273,17.6414 C17.6323,17.2874 17.7983,16.8314 18.0553,16.2414 C19.2023,13.6064 18.6833,13.1024 19.5703,12.4174 C20.4583,11.7324 20.8423,11.6554 21.0253,10.1934 C21.2093,8.7314 21.8823,9.2484 21.7453,7.9224 C21.6073,6.5974 22.0063,5.8514 22.4193,5.6984 C22.8313,5.5474 25.5283,5.6984 25.8633,4.1454 C25.8633,4.1454 26.3233,3.3684 25.6643,3.2014" id="Fill-12" fill="#FFFFFF" mask="url(#mask-4)"></path>
                            </g>
                        </g>
                    </g>
                </g>
            </g>
        </g>
    </g>
</svg>