<?xml version="1.0" encoding="utf-8"?>
<!-- Generator: Adobe Illustrator 16.0.0, SVG Export Plug-In . SVG Version: 6.00 Build 0)  -->
<!DOCTYPE svg PUBLIC "-//W3C//DTD SVG 1.1//EN" "http://www.w3.org/Graphics/SVG/1.1/DTD/svg11.dtd">
<svg version="1.1" id="Layer_1" xmlns="http://www.w3.org/2000/svg" xmlns:xlink="http://www.w3.org/1999/xlink" x="0px" y="0px"
	 width="50px" height="50px" viewBox="0 0 50 50" enable-background="new 0 0 50 50" xml:space="preserve">
<title>icon</title>
<desc>Created with Sketch.</desc>
<g id="Desktop_1_">
	<g id="Desktop-V2---Home_1_" transform="translate(-1068.000000, -1058.000000)">
		<g id="products_1_" transform="translate(0.000000, 643.000000)">
			<g id="right_side_1_" transform="translate(1068.000000, 341.000000)">
				<g id="bugs_1_">
					<g id="paralysis_ticks_1_" transform="translate(0.000000, 74.000000)">
						<g id="icon_1_">
							<g id="icon_x2F_paratick">
								<g id="Group-3">
									<g id="Clip-2">
									</g>
									<defs>
										<filter id="Adobe_OpacityMaskFilter" filterUnits="userSpaceOnUse" x="0" y="0" width="50" height="50">
											<feColorMatrix  type="matrix" values="1 0 0 0 0  0 1 0 0 0  0 0 1 0 0  0 0 0 1 0"/>
										</filter>
									</defs>
									<mask maskUnits="userSpaceOnUse" x="0" y="0" width="50" height="50" id="mask-2_2_">
										<g filter="url(#Adobe_OpacityMaskFilter)">
											<polygon id="path-1_2_" fill="#FFFFFF" points="0,0 50,0 50,50 0,50 											"/>
										</g>
									</mask>
									<path id="Fill-1" mask="url(#mask-2_2_)" fill="#582C83" d="M50,25c0,13.807-11.193,25-25,25C11.193,50,0,38.807,0,25
										S11.193,0,25,0C38.807,0,50,11.193,50,25"/>
								</g>
								<path id="Fill-4" fill="#FEFEFE" d="M10.549,26.613c0.185-0.148,0.154-0.236,0.233-1.244
									c0.076-1.007,0.495-1.938,0.495-1.938c0.188-1.317,1.289-2.338,1.289-2.338c1.488-2.263,3.332-2.427,3.332-2.427
									c1.077-1.262,2.299-1.496,2.939-1.523c0.615-0.776,1.201-1.443,1.676-1.952c-0.135,0.003-0.266,0.005-0.348,0
									c-0.248-0.015-0.607-0.412-0.607-0.412c-0.387,0.114-0.742,0.797-2.092,1.048c-1.35,0.254-2.156-0.28-2.156-0.28
									c-2.296-0.192-3.785-1.672-3.785-1.672c-1.596-1.998-0.727-3.357-0.497-3.623c0.232-0.269,1.041-0.829,1.583-0.814
									c0.542,0.017-0.324,0.37-0.494,0.501c-0.173,0.132-0.203,0.148,0.06,0.743c0.264,0.588-0.17,1.419-0.327,1.877
									c-0.152,0.458,0.468,0.947,0.468,0.947c1.363-0.238,1.812,0.575,2.046,0.755c0.233,0.176,1.195,0.325,1.195,0.325
									c1.302-0.871,2.172-0.871,2.746-0.845c0.572,0.031,0.99-0.19,0.99-0.19c0.172-0.268,0.467-0.343,0.932-0.297
									c0.312,0.029,0.883,0.611,1.217,0.984c0.064-0.061,0.115-0.103,0.136-0.117c0.328-0.246,0.583-0.313,0.907-0.093
									c0.328,0.227,1.025,0.427,1.025,0.427s-0.793-0.59-0.116-1.778C24.023,11.566,25,12.589,25,12.589s0.977-1.022,1.605,0.088
									c0.673,1.188-0.116,1.778-0.116,1.778s0.694-0.2,1.022-0.427c0.324-0.221,0.582-0.153,0.906,0.093
									c0.024,0.015,0.07,0.057,0.137,0.117c0.336-0.373,0.904-0.955,1.217-0.984c0.467-0.046,0.758,0.029,0.931,0.297
									c0,0,0.419,0.222,0.992,0.19c0.575-0.026,1.442-0.026,2.747,0.845c0,0,0.958-0.149,1.193-0.325
									c0.232-0.18,0.682-0.993,2.049-0.755c0,0,0.619-0.489,0.465-0.947c-0.158-0.458-0.592-1.289-0.325-1.877
									c0.261-0.595,0.231-0.611,0.06-0.743c-0.172-0.131-1.039-0.484-0.496-0.501c0.543-0.015,1.35,0.546,1.582,0.814
									c0.23,0.266,1.103,1.625-0.498,3.623c0,0-1.487,1.479-3.783,1.672c0,0-0.805,0.534-2.157,0.28
									c-1.351-0.251-1.704-0.934-2.093-1.048c0,0-0.354,0.397-0.605,0.412c-0.082,0.005-0.213,0.003-0.346,0
									c0.473,0.509,1.057,1.176,1.673,1.952c0.642,0.027,1.866,0.262,2.938,1.523c0,0,1.846,0.164,3.334,2.427
									c0,0,1.102,1.021,1.289,2.338c0,0,0.418,0.931,0.496,1.938c0.076,1.008,0.047,1.096,0.231,1.244
									c0.188,0.146,0.188,0.25-0.124,0.207c-0.309-0.043-1.334-0.875-1.488-2.648c0,0-0.466-0.027-0.759-0.843
									c-0.298-0.813-0.448-1.272-0.728-1.523c0,0-0.762-0.206-1.12-0.74c-0.354-0.534-0.621-1.037-1.132-1.183
									c0,0-0.676-0.127-1.188-0.279c0.574,0.916,1.089,1.887,1.474,2.866c0.668,0.352,2.357,1.405,2.385,3.079
									c0,0,0.479,0.561,0.603,1.377c0.125,0.813-0.293,1.092-0.248,1.361c0,0,0.155,0.248-0.014,0.885
									c-0.171,0.637-0.077,0.459-0.05,1.035c0.033,0.58-0.168,1.082-0.168,1.125c0,0.045,0.619,0.652,0.635,1.361
									c0,0,0.373,0.371,0.204,0.977c0,0-0.095-0.029-0.234-0.266c-0.139-0.238-0.325-0.443-0.418-0.459
									c-0.094-0.016-0.962-0.977-1.069-1.332c0,0-0.188-0.4-0.205-1.021c-0.012-0.617,0.018-1.197,0.205-1.686
									c0,0-0.266-0.371-0.141-1.152c0.124-0.787,0.294-1.271,0.154-1.568c0,0-0.605-0.258-0.958-0.531
									c0.12,2.014,0.063,3.291-0.313,4.617c0.383,0.398,1.244,1.529,0.914,3.311c0,0,0.188,0.652-0.076,1.508
									c-0.265,0.857-0.746,1.568-0.852,1.627c0,0-0.454,1.451-1.335,1.895c0,0-0.628,1.484-1.181,1.881
									c-0.123,0.086-0.543,0.117-0.508-0.045c0.025-0.166,0.633-1.76,0.881-2.043c0,0,0.869-1.877,0.932-1.877
									s-0.016-0.254,0.199-0.637c0.22-0.387,0.978-1.66,1.041-1.809c0.061-0.143-0.094-0.279-0.202-0.279
									c-0.095,0-0.517-0.428-0.625-1.418c-0.046,0.1-0.095,0.201-0.146,0.309c-1.363,2.873-4.025,5.48-8.373,5.48h-0.838
									c-4.353,0-7.012-2.607-8.377-5.48c-0.048-0.107-0.098-0.209-0.146-0.309c-0.106,0.99-0.53,1.418-0.624,1.418
									c-0.11,0-0.264,0.137-0.204,0.279c0.064,0.148,0.821,1.422,1.041,1.809c0.215,0.383,0.139,0.637,0.2,0.637
									c0.063,0,0.93,1.877,0.93,1.877c0.249,0.283,0.855,1.877,0.886,2.043c0.03,0.162-0.388,0.131-0.512,0.045
									c-0.549-0.396-1.178-1.881-1.178-1.881c-0.884-0.443-1.334-1.895-1.334-1.895c-0.109-0.059-0.591-0.77-0.855-1.627
									c-0.261-0.855-0.075-1.508-0.075-1.508c-0.33-1.781,0.53-2.912,0.913-3.311c-0.377-1.326-0.433-2.604-0.313-4.617
									c-0.349,0.273-0.958,0.531-0.958,0.531c-0.139,0.297,0.033,0.781,0.154,1.568c0.125,0.781-0.139,1.152-0.139,1.152
									c0.185,0.488,0.219,1.068,0.203,1.686c-0.018,0.621-0.203,1.021-0.203,1.021c-0.11,0.355-0.977,1.316-1.07,1.332
									c-0.094,0.016-0.279,0.221-0.419,0.459c-0.14,0.236-0.235,0.266-0.235,0.266c-0.169-0.605,0.205-0.977,0.205-0.977
									c0.014-0.709,0.636-1.316,0.636-1.361c0-0.043-0.203-0.545-0.169-1.125c0.03-0.576,0.121-0.398-0.049-1.035
									s-0.015-0.885-0.015-0.885c0.046-0.27-0.373-0.549-0.249-1.361c0.125-0.816,0.608-1.377,0.608-1.377
									c0.023-1.674,1.712-2.728,2.382-3.079c0.382-0.979,0.902-1.95,1.475-2.866c-0.517,0.152-1.193,0.279-1.193,0.279
									c-0.513,0.146-0.773,0.648-1.131,1.183c-0.358,0.534-1.116,0.74-1.116,0.74c-0.279,0.251-0.434,0.71-0.73,1.523
									c-0.295,0.815-0.759,0.843-0.759,0.843c-0.155,1.773-1.179,2.605-1.489,2.648C10.364,26.863,10.364,26.76,10.549,26.613"/>
							</g>
						</g>
					</g>
				</g>
			</g>
		</g>
	</g>
</g>
</svg>
