<?xml version="1.0" encoding="UTF-8"?>
<svg width="48px" height="48px" viewBox="0 0 48 48" version="1.1" xmlns="http://www.w3.org/2000/svg" xmlns:xlink="http://www.w3.org/1999/xlink">
    <!-- Generator: Sketch 51.1 (57501) - http://www.bohemiancoding.com/sketch -->
    <title>Group</title>
    <desc>Created with Sketch.</desc>
    <defs></defs>
    <g id="Symbols" stroke="none" stroke-width="1" fill="none" fill-rule="evenodd">
        <g id="btn_play" transform="translate(-24.000000, -24.000000)" fill="#FFFFFF">
            <g id="Group-7">
                <g id="Group" transform="translate(24.000000, 24.000000)">
                    <circle id="Oval-2" opacity="0.2" cx="24" cy="24" r="24"></circle>
                    <polygon id="Fill-1" points="22 17 22 31 28.9986 23.9986"></polygon>
                </g>
            </g>
        </g>
    </g>
</svg>