13:18:42 192.168.0.253 /board/common/index.php
select *,(select name from hospital where hospital.no = common.hospital_fk) as hospital_name,(select count(*) from comment where comment.parent_fk = common.no and comment.tablename = 'common') as comment_count,(select name from clinic where clinic.no = common.clinic_fk) as clinic_name from common left outer join imagefiles on common.no = imagefiles.common_fk and imagefiles.tablename = 'common' WHERE 1=1 ORDER BY top desc ,gno DESC ,ono ASC LIMIT 0, 10 
13:24:36 192.168.0.253 /board/common/index.php
select *,(select name from hospital where hospital.no = common.hospital_fk) as hospital_name,(select count(*) from comment where comment.parent_fk = common.no and comment.tablename = 'common') as comment_count,(select name from clinic where clinic.no = common.clinic_fk) as clinic_name from common left outer join imagefiles on common.no = imagefiles.common_fk and imagefiles.tablename = 'common' WHERE 1=1 ORDER BY top desc ,gno DESC ,ono ASC LIMIT 0, 10 
