08:51:00 192.168.0.253 /include/login.php
 SELECT IF(secession > 0, 2, count(1) ) AS cnt FROM member WHERE id= 'vizensoft' AND password=password('qlwpsthvmxm')
08:51:00 192.168.0.253 /include/login.php
 SELECT IF(secession > 0, 2, count(1) ) AS cnt FROM member WHERE id= '' AND password=password('')
08:51:06 192.168.0.253 /include/login.php
 SELECT IF(secession > 0, 2, count(1) ) AS cnt FROM member WHERE id= 'hh5025' AND password=password('hh48971263')
08:51:14 192.168.0.253 /include/login.php
 SELECT IF(secession > 0, 2, count(1) ) AS cnt FROM member WHERE id= 'vizensoft' AND password=password('qlwpsthvmxm')
08:51:14 192.168.0.253 /include/login.php
 SELECT IF(secession > 0, 2, count(1) ) AS cnt FROM member WHERE id= '' AND password=password('')
