<?xml version="1.0" encoding="UTF-8"?>
<svg width="198px" height="68px" viewBox="0 0 198 68" version="1.1" xmlns="http://www.w3.org/2000/svg" xmlns:xlink="http://www.w3.org/1999/xlink">
    <!-- Generator: Sketch 51.1 (57501) - http://www.bohemiancoding.com/sketch -->
    <title>logo - white</title>
    <desc>Created with Sketch.</desc>
    <defs></defs>
    <g id="Symbols" stroke="none" stroke-width="1" fill="none" fill-rule="evenodd">
        <g id="footer" transform="translate(-72.000000, -60.000000)" fill="#FFFFFF">
            <g id="logo---white">
                <g transform="translate(72.000000, 60.000000)">
                    <g id="logo">
                        <polygon id="Fill-1" points="116.6319 0.000178947368 87.1644904 43.0781789 87.0893458 43.0781789 82.2991771 24.0858982 76.461159 24.0858982 83.1746711 50.3231614 88.4669964 50.3231614 118.090659 0.000178947368"></polygon>
                        <g id="Group-6" transform="translate(0.000000, 22.810421)">
                            <path d="M14.1963614,3.92491228 C13.0113434,3.92491228 12.0165723,4.11698246 11.1738795,4.38361404 L9.52785542,12.2000351 C9.94890361,12.2394035 10.715259,12.2394035 11.327747,12.2394035 C13.737741,12.2394035 15.3837651,11.8194737 16.4930422,11.0195789 C17.754994,10.1021754 18.5595181,8.53877193 18.5595181,6.93719298 C18.5595181,5.032 17.0673614,3.92491228 14.1963614,3.92491228 M10.715259,15.062 C10.1021747,15.062 9.33760843,15.0989825 8.8771988,15.1371579 L7.04092771,23.7934386 C7.69039157,24.0612632 8.7245241,24.2151579 10.0646024,24.2151579 C12.0165723,24.2151579 13.5838735,23.870386 14.732512,22.9165965 C15.9568916,21.9240351 16.6457169,20.2097193 16.6457169,18.6069474 C16.6457169,15.8988772 14.274488,15.062 10.715259,15.062 M18.2148072,13.5355789 L18.2148072,13.6107368 C20.7399036,14.2972982 23.265,16.3581754 23.265,19.4849825 C23.265,22.1924561 21.6982952,24.5557544 19.0569036,25.9658596 C16.6838855,27.2638246 13.5075361,27.8358596 9.5660241,27.8358596 C5.70323494,27.8358596 1.98954217,27.2262456 0,26.3100351 L5.12772289,2.05849123 C7.1941988,1.29378947 10.8691265,0.531473684 14.6561747,0.531473684 C21.6982952,0.531473684 25.0642952,3.16319298 25.0642952,6.86263158 C25.0642952,10.5990526 21.657741,12.8102456 18.2148072,13.5355789" id="Fill-2"></path>
                            <path d="M40.2628825,4.00120351 C39.3444488,4.00120351 38.2733404,4.19327368 37.6220873,4.41934386 L35.5556114,14.0687825 C35.977256,14.1839053 36.7805873,14.2608526 37.4694127,14.2608526 C41.3721596,14.2608526 44.6236536,11.3619053 44.6236536,7.43520351 C44.6236536,5.52762456 43.5543343,4.00120351 40.2628825,4.00120351 M42.0615813,15.5576246 L42.0615813,15.6327825 L48.4506596,27.3013439 L41.0274488,27.3013439 L35.3641717,15.4419053 L35.2884307,15.4419053 L32.7239729,27.3013439 L26.0283524,27.3013439 L31.4614247,2.05664211 C33.5654729,1.29432632 37.2392078,0.532607018 40.721503,0.532607018 C47.0354367,0.532607018 51.3586355,2.97106316 51.3586355,7.62548421 C51.3586355,12.9253088 46.0794307,15.3661509 42.0615813,15.5576246" id="Fill-4"></path>
                        </g>
                        <polygon id="Fill-7" points="122.302572 27.8039474 113.080663 27.8039474 111.587313 34.7828947 119.698157 34.7828947 118.899 38.6332456 110.747006 38.6332456 109.140343 46.1830351 118.362253 46.1830351 117.520157 50.1133158 101.562669 50.1133158 107.150205 23.8772456 123.107096 23.8772456"></polygon>
                        <path d="M142.596857,28.4525719 C141.906242,28.0708175 140.530381,27.6908526 138.923122,27.6908526 C133.259248,27.6908526 129.77576,34.1717298 129.77576,39.4351684 C129.77576,43.0182912 131.384808,46.0323614 134.980417,46.0323614 C136.513128,46.0323614 138.005284,45.5366772 138.885549,45.0785719 L139.650116,49.120993 C138.005284,49.9978351 135.634055,50.6444316 132.80182,50.6444316 C125.873013,50.6444316 122.699049,45.6136246 122.699049,39.9296596 C122.699049,32.2665368 128.209055,23.3430281 138.196724,23.3430281 C141.256778,23.3430281 143.478314,24.028993 144.740266,24.8688526 L142.596857,28.4525719 Z" id="Fill-8"></path>
                        <polygon id="Fill-10" points="165.427807 27.8039474 159.419819 27.8039474 154.636807 50.1133158 147.901825 50.1133158 152.647861 27.8039474 146.639873 27.8039474 147.481373 23.8772456 166.2705 23.8772456"></polygon>
                        <path d="M178.852923,27.3096947 C176.480501,27.3096947 174.798098,28.7579754 173.571929,30.7770982 C171.927098,33.4863614 170.817224,38.2922912 170.817224,40.9603965 C170.817224,43.8981158 172.082754,46.261414 174.875031,46.261414 C177.438893,46.261414 179.236995,44.5822912 180.462567,42.2571684 C181.875405,39.5860807 182.871965,35.0885368 182.871965,32.5707474 C182.871965,29.635414 181.646393,27.3096947 178.852923,27.3096947 M174.185013,50.647414 C167.181658,50.647414 164.045863,45.6124316 164.045863,39.9690281 C164.045863,33.8675193 167.641471,23.3418351 179.466604,23.3418351 C186.466977,23.3418351 189.568182,28.3362561 189.568182,33.9802561 C189.568182,40.1986772 185.969592,50.647414 174.185013,50.647414" id="Fill-11"></path>
                        <path d="M65.9227283,24.1478737 L40.3139331,67.5473825 L41.9528006,67.5473825 L58.0289693,44.5460842 L70.6180717,44.5460842 L72.0905476,50.3845404 L77.9279693,50.3845404 L71.2120717,24.1478737 L65.9227283,24.1478737 Z M67.2234452,31.3922596 L67.2997825,31.3922596 L69.7264753,41.0142596 L60.4986018,41.0142596 L67.2234452,31.3922596 Z" id="Fill-13"></path>
                        <path d="M194.73634,23.9226982 C196.444984,23.9226982 197.792816,25.2481018 197.792816,26.9308035 C197.792816,28.6552596 196.444984,29.9782772 194.718448,29.9782772 C192.989527,29.9782772 191.623804,28.6552596 191.623804,26.9308035 C191.623804,25.2481018 192.989527,23.9226982 194.718448,23.9226982 L194.73634,23.9226982 Z M194.698767,24.4529789 C193.332448,24.4529789 192.288177,25.569014 192.288177,26.9308035 C192.288177,28.3325579 193.332448,29.4295053 194.73634,29.4295053 C196.104448,29.448593 197.109954,28.3325579 197.109954,26.9510842 C197.109954,25.569014 196.104448,24.4529789 194.718448,24.4529789 L194.698767,24.4529789 Z M194.167984,28.596207 L193.579352,28.596207 L193.579352,25.4359965 C193.901996,25.3805228 194.243129,25.3429439 194.679087,25.3429439 C195.211063,25.3429439 195.477051,25.4359965 195.686382,25.5886982 C195.876629,25.7217158 196.009027,25.9656807 196.009027,26.2519965 C196.009027,26.6474702 195.723954,26.8932246 195.384014,27.0077509 L195.384014,27.0453298 C195.667298,27.1586632 195.819376,27.4044175 195.914201,27.8022772 C196.009027,28.2943825 196.06628,28.4840667 196.142617,28.596207 L195.533707,28.596207 C195.438882,28.4840667 195.363737,28.2001368 195.286804,27.7646982 C195.211063,27.4246982 195.001731,27.272593 194.546093,27.272593 L194.167984,27.272593 L194.167984,28.596207 Z M194.167984,26.8180667 L194.565177,26.8180667 C195.001731,26.8180667 195.384014,26.6874351 195.384014,26.3074702 C195.384014,26.0044526 195.191978,25.7962772 194.62243,25.7962772 C194.3964,25.7962772 194.26281,25.8159614 194.167984,25.8338561 L194.167984,26.8180667 Z" id="Fill-14"></path>
                    </g>
                </g>
            </g>
        </g>
    </g>
</svg>