<?xml version="1.0" encoding="UTF-8"?>
<svg width="24px" height="10px" viewBox="0 0 24 10" version="1.1" xmlns="http://www.w3.org/2000/svg" xmlns:xlink="http://www.w3.org/1999/xlink">
    <!-- Generator: Sketch 51.1 (57501) - http://www.bohemiancoding.com/sketch -->
    <title>Fill 1</title>
    <desc>Created with Sketch.</desc>
    <defs></defs>
    <g id="Symbols" stroke="none" stroke-width="1" fill="none" fill-rule="evenodd">
        <g id="arrow---red" transform="translate(-12.000000, -19.000000)" fill="#FFFFFF">
            <g id="arrow">
                <polygon id="Fill-1" points="31 19 31 22.917 12 22.917 12 24.917 31 24.917 31 29 36 23.999"></polygon>
            </g>
        </g>
    </g>
</svg>