<?xml version="1.0" encoding="UTF-8"?>
<svg width="30px" height="30px" viewBox="0 0 30 30" version="1.1" xmlns="http://www.w3.org/2000/svg" xmlns:xlink="http://www.w3.org/1999/xlink">
    <!-- Generator: Sketch 51.2 (57519) - http://www.bohemiancoding.com/sketch -->
    <title>Group 4</title>
    <desc>Created with Sketch.</desc>
    <defs>
        <polygon id="path-1" points="0 0.00015 30 0.00015 30 30 0 30"></polygon>
    </defs>
    <g id="Iconography" stroke="none" stroke-width="1" fill="none" fill-rule="evenodd">
        <g id="Icons" transform="translate(-190.000000, -573.000000)">
            <g id="Group-4" transform="translate(190.000000, 573.000000)">
                <g id="Group">
                    <g id="Group-3">
                        <mask id="mask-2" fill="white">
                            <use xlink:href="#path-1"></use>
                        </mask>
                        <g id="Clip-2"></g>
                        <path d="M30,15.00015 C30,23.284275 23.2845,30.00015 15,30.00015 C6.7155,30.00015 0,23.284275 0,15.00015 C0,6.71565 6.7155,0.00015 15,0.00015 C23.2845,0.00015 30,6.71565 30,15.00015" id="Fill-1" fill="#582D82" mask="url(#mask-2)"></path>
                    </g>
                </g>
                <g id="Group-2" transform="translate(14.924621, 13.049621) rotate(-45.000000) translate(-14.924621, -13.049621) translate(8.549621, 8.924621)" fill="#FFFFFF" fill-rule="nonzero">
                    <rect id="Rectangle" x="0" y="0" width="1.5" height="8.25"></rect>
                    <rect id="Rectangle" transform="translate(6.375000, 7.500000) rotate(-90.000000) translate(-6.375000, -7.500000) " x="5.625" y="1.125" width="1.5" height="12.75"></rect>
                </g>
            </g>
        </g>
    </g>
</svg>