<?xml version="1.0" encoding="UTF-8"?>
<svg width="35px" height="35px" viewBox="0 0 35 35" version="1.1" xmlns="http://www.w3.org/2000/svg" xmlns:xlink="http://www.w3.org/1999/xlink">
    <!-- Generator: Sketch 51.1 (57501) - http://www.bohemiancoding.com/sketch -->
    <title>facebook</title>
    <desc>Created with Sketch.</desc>
    <defs></defs>
    <g id="Symbols" stroke="none" stroke-width="1" fill="none" fill-rule="evenodd">
        <g id="footer" transform="translate(-72.000000, -163.000000)" fill="#FFFFFF">
            <g id="Group">
                <g transform="translate(72.000000, 163.000000)">
                    <path d="M21.463,16.095 L21.347,17.5 L18.701,17.5 L18.701,26.434 L15.126,26.434 L15.126,17.5 L13.323,17.5 L13.323,16.085 L13.323,13.924 L15.107,13.924 L15.107,12.316 C15.107,10.843 15.795,8.575 18.866,8.575 L21.628,8.575 L21.628,11.637 L19.622,11.637 C19.293,11.637 18.837,11.802 18.837,12.49 L18.837,13.924 L21.676,13.924 L21.463,16.095 Z M29.874,5.126 C26.705,1.957 22.335,0 17.5,0 C12.665,0 8.295,1.957 5.126,5.126 C1.957,8.295 0,12.664 0,17.5 C0,22.335 1.957,26.705 5.126,29.874 C8.295,33.042 12.665,35 17.5,35 C22.335,35 26.705,33.042 29.874,29.874 C33.043,26.705 35,22.335 35,17.5 C35,12.664 33.043,8.295 29.874,5.126 Z" id="facebook"></path>
                </g>
            </g>
        </g>
    </g>
</svg>