<?xml version="1.0" encoding="UTF-8"?>
<svg width="35px" height="35px" viewBox="0 0 35 35" version="1.1" xmlns="http://www.w3.org/2000/svg" xmlns:xlink="http://www.w3.org/1999/xlink">
    <!-- Generator: Sketch 51.1 (57501) - http://www.bohemiancoding.com/sketch -->
    <title>instagram</title>
    <desc>Created with Sketch.</desc>
    <defs></defs>
    <g id="Symbols" stroke="none" stroke-width="1" fill="none" fill-rule="evenodd">
        <g id="footer" transform="translate(-127.000000, -163.000000)" fill="#FFFFFF">
            <g id="Group">
                <g transform="translate(72.000000, 163.000000)">
                    <g id="instagram" transform="translate(55.000000, 0.000000)">
                        <path d="M17.4998,14.5837 C15.8898,14.5837 14.5828,15.8897 14.5828,17.5007 C14.5828,19.1107 15.8898,20.4167 17.4998,20.4167 C19.1108,20.4167 20.4168,19.1107 20.4168,17.5007 C20.4168,15.8897 19.1108,14.5837 17.4998,14.5837" id="Fill-1"></path>
                        <path d="M26.1975,21.1077 C26.1555,22.0397 26.0075,22.6747 25.7905,23.2317 C25.5675,23.8077 25.2675,24.2957 24.7815,24.7817 C24.2945,25.2677 23.8065,25.5667 23.2315,25.7907 C22.6755,26.0067 22.0385,26.1547 21.1075,26.1977 C20.1745,26.2397 19.8765,26.2507 17.4995,26.2507 C15.1235,26.2507 14.8255,26.2397 13.8925,26.1977 C12.9615,26.1547 12.3245,26.0067 11.7685,25.7907 C11.1935,25.5667 10.7045,25.2677 10.2185,24.7817 C9.7325,24.2957 9.4325,23.8077 9.2095,23.2317 C8.9925,22.6747 8.8445,22.0397 8.8025,21.1077 C8.7605,20.1747 8.7495,19.8767 8.7495,17.5007 C8.7495,15.1237 8.7605,14.8257 8.8025,13.8927 C8.8445,12.9617 8.9925,12.3247 9.2095,11.7687 C9.4325,11.1927 9.7325,10.7057 10.2185,10.2187 C10.7045,9.7327 11.1935,9.4337 11.7685,9.2097 C12.3245,8.9937 12.9615,8.8457 13.8925,8.8027 C14.8255,8.7607 15.1235,8.7507 17.4995,8.7507 C19.8765,8.7507 20.1745,8.7607 21.1075,8.8027 C22.0385,8.8457 22.6755,8.9937 23.2315,9.2097 C23.8065,9.4337 24.2945,9.7327 24.7815,10.2187 C25.2675,10.7057 25.5675,11.1927 25.7905,11.7687 C26.0075,12.3247 26.1555,12.9617 26.1975,13.8927 C26.2395,14.8257 26.2495,15.1237 26.2495,17.5007 C26.2495,19.8767 26.2395,20.1747 26.1975,21.1077 M29.8735,5.1267 C26.7155,1.9577 22.3355,0.0007 17.4995,0.0007 C12.6745,0.0007 8.2945,1.9577 5.1265,5.1267 C1.9575,8.2947 -0.0005,12.6647 -0.0005,17.5007 C-0.0005,22.3357 1.9575,26.7057 5.1265,29.8737 C8.2945,33.0427 12.6745,34.9997 17.4995,34.9997 C22.3355,34.9997 26.7155,33.0427 29.8735,29.8737 C33.0425,26.7057 34.9995,22.3357 34.9995,17.5007 C34.9995,12.6647 33.0425,8.2947 29.8735,5.1267" id="Fill-5"></path>
                        <path d="M22.1707,13.8796 C21.5907,13.8796 21.1207,13.4096 21.1207,12.8296 C21.1207,12.2496 21.5907,11.7796 22.1707,11.7796 C22.7507,11.7796 23.2207,12.2496 23.2207,12.8296 C23.2207,13.4096 22.7507,13.8796 22.1707,13.8796 M17.4997,21.9936 C15.0187,21.9936 13.0067,19.9816 13.0067,17.5006 C13.0067,15.0186 15.0187,13.0066 17.4997,13.0066 C19.9817,13.0066 21.9937,15.0186 21.9937,17.5006 C21.9937,19.9816 19.9817,21.9936 17.4997,21.9936 M24.3207,12.3396 C24.1627,11.9316 23.9727,11.6396 23.6667,11.3336 C23.3607,11.0276 23.0687,10.8376 22.6607,10.6786 C22.3527,10.5596 21.8887,10.4166 21.0357,10.3776 C20.1127,10.3356 19.8367,10.3266 17.4997,10.3266 C15.1637,10.3266 14.8867,10.3356 13.9637,10.3776 C13.1107,10.4166 12.6477,10.5596 12.3397,10.6786 C11.9307,10.8376 11.6397,11.0276 11.3337,11.3336 C11.0267,11.6396 10.8377,11.9316 10.6787,12.3396 C10.5587,12.6486 10.4167,13.1106 10.3777,13.9646 C10.3357,14.8866 10.3267,15.1636 10.3267,17.5006 C10.3267,19.8366 10.3357,20.1126 10.3777,21.0356 C10.4167,21.8886 10.5587,22.3526 10.6787,22.6606 C10.8377,23.0686 11.0267,23.3606 11.3337,23.6666 C11.6397,23.9726 11.9307,24.1626 12.3397,24.3206 C12.6477,24.4416 13.1107,24.5836 13.9637,24.6226 C14.8867,24.6646 15.1637,24.6736 17.4997,24.6736 C19.8367,24.6736 20.1127,24.6646 21.0357,24.6226 C21.8887,24.5836 22.3527,24.4416 22.6607,24.3206 C23.0687,24.1626 23.3607,23.9726 23.6667,23.6666 C23.9727,23.3606 24.1627,23.0686 24.3207,22.6606 C24.4417,22.3526 24.5837,21.8886 24.6227,21.0356 C24.6647,20.1126 24.6737,19.8366 24.6737,17.5006 C24.6737,15.1636 24.6647,14.8866 24.6227,13.9646 C24.5837,13.1106 24.4417,12.6486 24.3207,12.3396" id="Fill-3"></path>
                    </g>
                </g>
            </g>
        </g>
    </g>
</svg>