<?xml version="1.0" encoding="UTF-8"?>
<svg width="80px" height="80px" viewBox="0 0 80 80" version="1.1" xmlns="http://www.w3.org/2000/svg" xmlns:xlink="http://www.w3.org/1999/xlink">
    <!-- Generator: Sketch 51.2 (57519) - http://www.bohemiancoding.com/sketch -->
    <title>benefit/longlasting/sm</title>
    <desc>Created with Sketch.</desc>
    <defs>
        <polygon id="path-1" points="0 0.0004 80 0.0004 80 80 0 80"></polygon>
    </defs>
    <g id="Desktop" stroke="none" stroke-width="1" fill="none" fill-rule="evenodd">
        <g id="Desktop-V2---Home" transform="translate(-170.000000, -1716.000000)">
            <g id="Group-4" transform="translate(0.000000, 1520.000000)">
                <g id="Group-3">
                    <g id="Group" transform="translate(170.000000, 196.000000)">
                        <g id="benefit/longlasting/sm">
                            <g id="Group">
                                <g id="Group-3">
                                    <mask id="mask-2" fill="white">
                                        <use xlink:href="#path-1"></use>
                                    </mask>
                                    <g id="Clip-2"></g>
                                    <path d="M80,40.0004 C80,62.0914 62.092,80.0004 40,80.0004 C17.908,80.0004 0,62.0914 0,40.0004 C0,17.9084 17.908,0.0004 40,0.0004 C62.092,0.0004 80,17.9084 80,40.0004" id="Fill-1" fill="#582D82" mask="url(#mask-2)"></path>
                                </g>
                                <path d="M76.9512,24.6606 C75.4522,21.0546 73.4402,17.7146 71.0082,14.7316 C69.0252,14.7616 67.0692,14.5326 65.3782,13.8276 C60.8742,11.9486 57.1212,10.4456 55.6202,9.6946 C54.1182,8.9436 53.7432,8.1916 50.3652,8.9436 C46.9882,9.6946 42.8592,10.0706 42.8592,10.0706 C42.8592,10.0706 41.7332,10.0706 40.6072,10.8216 C39.4812,11.5736 34.4152,14.7666 34.4152,14.7666 C34.4152,14.7666 31.4132,16.2696 32.5392,18.1476 C33.6652,20.0266 37.0422,18.5236 37.0422,18.5236 L41.9212,16.2696 L45.2992,16.2696 C45.2992,16.2696 45.2992,13.6396 47.1762,12.8886 C49.0522,12.1376 50.9292,12.8886 52.4302,13.6396 C53.9302,14.3906 60.1232,17.2096 60.1232,17.2096 C60.1232,17.2096 58.6222,17.5846 55.2442,16.0816 L51.1162,14.2036 C51.1162,14.2036 48.4892,12.7006 46.9882,14.9546 C45.4862,17.2096 49.6152,19.0876 49.6152,19.0876 C49.6152,19.0876 56.7462,22.4696 58.2472,23.5966 C59.7482,24.7226 62.7512,27.3526 66.1282,26.2256 C69.5062,25.0986 72.8842,25.0986 74.3852,25.0986 C75.0852,25.0986 76.0282,25.0146 76.9512,24.6606" id="Fill-4" fill="#FFFFFF"></path>
                                <path d="M43.4189,40.434 C43.1509,41.281 42.7279,42.083 42.1659,42.782 C41.6089,43.474 40.9109,44.083 40.1029,44.51 C39.6979,44.734 39.2589,44.907 38.7799,44.989 C38.5379,45.033 38.2899,45.06 38.0389,45.056 C37.9789,45.049 37.9239,45.047 37.8479,45.047 L37.7609,45.042 L37.6559,45.034 C37.5239,45.015 37.4019,44.986 37.2749,44.951 C36.8029,44.814 36.3919,44.609 36.0109,44.373 C35.6249,44.144 35.2709,43.896 34.9309,43.63 C34.2469,43.111 33.6099,42.556 32.9929,41.977 C32.3769,41.41 31.7759,40.825 31.1869,40.249 C30.5859,39.669 30.0129,39.082 29.4089,38.541 C29.1069,38.274 28.8059,38.005 28.5039,37.808 C28.4299,37.759 28.3559,37.709 28.2929,37.676 C28.2479,37.652 28.2259,37.642 28.1969,37.633 L28.1869,37.628 L28.1749,37.619 L28.1639,37.614 L28.1419,37.61 L28.1249,37.6 C28.0749,37.593 28.0479,37.595 28.0479,37.595 C28.0119,37.624 28.0039,37.663 27.9969,37.723 C27.9959,37.866 28.0199,38.049 28.0529,38.221 C28.0879,38.41 28.1389,38.596 28.1899,38.784 C28.2179,38.874 28.2399,38.96 28.2739,39.056 C28.3079,39.146 28.3419,39.242 28.3739,39.322 L28.9959,40.924 L27.6009,39.947 C26.9079,39.46 26.2689,38.862 25.7979,38.121 C25.5609,37.755 25.3809,37.354 25.2379,36.945 C25.1009,36.529 25.0229,36.104 24.9919,35.67 C24.9329,34.808 25.0699,33.959 25.3099,33.168 C25.5489,32.378 25.8999,31.629 26.2919,30.915 C27.0809,29.498 28.0769,28.226 29.1539,27.035 C29.6849,26.437 30.2549,25.869 30.8319,25.317 C31.1239,25.051 31.4209,24.78 31.7239,24.519 C32.0169,24.259 32.3249,23.998 32.6349,23.753 C32.0679,24.304 31.5259,24.887 30.9889,25.469 C30.4589,26.062 29.9509,26.674 29.4599,27.291 C28.9699,27.913 28.5069,28.545 28.0679,29.207 C27.6399,29.864 27.2339,30.535 26.8969,31.234 C26.5589,31.933 26.2709,32.65 26.0809,33.377 C25.8919,34.109 25.8079,34.867 25.8859,35.597 C25.9559,36.306 26.2059,37.002 26.6099,37.59 C26.7009,37.715 26.8539,37.791 26.9539,37.905 C26.9489,37.834 26.9239,37.787 26.9239,37.705 C26.9309,37.574 26.9369,37.421 26.9849,37.254 C27.0019,37.182 27.0389,37.092 27.0929,36.996 C27.1459,36.905 27.2109,36.819 27.3029,36.731 C27.3959,36.654 27.4999,36.592 27.6119,36.557 C27.7179,36.517 27.8149,36.499 27.9119,36.493 C28.0969,36.48 28.2559,36.501 28.3949,36.536 L28.4429,36.543 L28.4999,36.566 L28.5169,36.576 L28.5449,36.585 L28.5779,36.593 L28.6059,36.603 C28.6789,36.63 28.7449,36.659 28.7449,36.659 C28.9149,36.75 29.0229,36.819 29.1249,36.877 C29.5089,37.145 29.8369,37.412 30.1609,37.694 C30.8049,38.259 31.3999,38.851 31.9949,39.425 C32.5899,39.999 33.1739,40.576 33.7889,41.132 C34.3889,41.685 34.9969,42.231 35.6359,42.721 C35.9519,42.966 36.2769,43.189 36.6069,43.389 C36.9369,43.59 37.2699,43.763 37.5979,43.861 C37.6699,43.882 37.7519,43.893 37.8289,43.91 L37.8789,43.917 L37.9499,43.923 C37.9499,43.923 38.0259,43.923 38.0699,43.931 C38.2339,43.936 38.4009,43.919 38.5729,43.885 C38.9129,43.834 39.2579,43.702 39.5949,43.538 C40.2569,43.203 40.8489,42.699 41.3359,42.109 C41.8339,41.524 42.2229,40.849 42.4669,40.123 C42.7219,39.398 42.8369,38.626 42.7959,37.867 C42.7689,37.476 42.7039,37.094 42.6129,36.719 C42.5719,36.526 42.5109,36.339 42.4439,36.159 L42.3969,36.026 L42.3429,35.876 L42.2359,35.589 C41.9279,34.837 41.5829,34.098 41.2069,33.372 C40.8189,32.647 40.4149,31.923 40.0069,31.205 C39.6039,30.486 39.1829,29.752 38.8049,29.015 C38.6209,28.641 38.4319,28.262 38.2749,27.88 C38.1069,27.489 37.9649,27.09 37.8499,26.684 C37.7399,26.278 37.6669,25.858 37.6709,25.438 C37.6699,25.018 37.7439,24.593 37.9139,24.216 C37.7819,24.602 37.7519,25.035 37.7849,25.435 C37.8239,25.835 37.9339,26.237 38.0679,26.62 C38.3449,27.391 38.7529,28.104 39.1719,28.81 C39.5919,29.523 40.0469,30.21 40.4979,30.91 C40.9489,31.614 41.3949,32.308 41.8199,33.041 C42.2399,33.758 42.6499,34.498 42.9979,35.27 L43.1329,35.566 L43.1869,35.714 L43.2449,35.858 C43.3299,36.065 43.3979,36.272 43.4629,36.486 C43.5899,36.913 43.6689,37.349 43.7169,37.797 C43.7929,38.675 43.6969,39.58 43.4189,40.434 M62.3079,32.246 C58.6809,31.576 54.7339,31.19 52.9389,30.486 C51.1429,29.781 50.3579,26.925 50.0989,25.614 C49.8459,24.307 43.3479,22.506 40.9179,21.764 C38.0319,20.884 31.5709,20.339 26.3439,26.063 C21.1259,31.78 20.6149,42.762 15.7909,50.07 C14.5179,51.991 11.5689,54.433 3.3179,55.969 C9.1849,69.427 22.2389,79.03 37.6329,79.928 C38.8819,78.248 39.5599,76.1 39.7919,71.902 C40.2419,63.905 44.0819,66.456 42.8439,59.316 C41.6009,52.182 43.4829,47.987 45.6629,47.002 C47.8389,46.03 62.5049,45.838 63.7389,37.291 C63.7389,37.291 65.9399,32.905 62.3079,32.246" id="Fill-6" fill="#FFFFFF"></path>
                                <path d="M36.3232,58.2387 C36.9922,53.9107 33.2232,51.8787 30.0792,50.0187 L30.0572,50.0377 C30.0542,50.0367 30.0522,50.0347 30.0502,50.0337 C28.9102,48.0577 28.4622,46.6517 28.1552,44.6687 C28.0212,43.8387 28.2512,43.4647 27.4382,43.5557 C25.1712,43.7997 23.1282,46.9047 22.8322,49.2367 C22.5752,51.5517 23.5832,52.8937 23.5832,52.8937 C22.4382,51.6087 22.1332,50.7557 22.1582,50.1977 C13.3472,56.4237 16.8902,60.1797 13.8022,64.5997 C13.7802,64.6317 13.7702,64.6627 13.7662,64.6927 C12.9582,65.8437 12.1532,66.9087 11.3552,67.9157 C17.1732,73.8837 24.8392,78.0397 33.4292,79.4597 C33.4062,77.7457 33.0612,75.9907 32.2282,74.1457 C31.0212,71.4657 29.6402,70.1697 30.8202,67.7177 C31.1732,67.1067 36.2832,67.4097 37.1222,63.7607 C37.5392,63.4857 37.7212,63.2087 37.7642,62.9257 C37.8932,62.2937 37.2962,61.6367 37.0222,60.9347 C36.6352,59.9387 36.5192,59.4437 36.3232,58.2387" id="Fill-8" fill="#C8102E"></path>
                            </g>
                        </g>
                    </g>
                </g>
            </g>
        </g>
    </g>
</svg>