<?xml version="1.0" encoding="UTF-8"?>
<svg width="22px" height="16px" viewBox="0 0 22 16" version="1.1" xmlns="http://www.w3.org/2000/svg" xmlns:xlink="http://www.w3.org/1999/xlink">
    <!-- Generator: Sketch 51.2 (57519) - http://www.bohemiancoding.com/sketch -->
    <title>Group</title>
    <desc>Created with Sketch.</desc>
    <defs></defs>
    <g id="Symbols" stroke="none" stroke-width="1" fill="none" fill-rule="evenodd">
        <g id="icon/mail" transform="translate(-13.000000, -16.000000)" fill="#FFFFFF">
            <g id="mail">
                <g id="Group" transform="translate(13.000000, 16.000000)">
                    <path d="M2.769,5.1718 C3.027,5.3538 3.804,5.8938 5.1,6.7918 C6.395,7.6908 7.389,8.3818 8.078,8.8658 C8.154,8.9198 8.315,9.0348 8.561,9.2138 C8.808,9.3918 9.012,9.5358 9.175,9.6458 C9.338,9.7558 9.535,9.8788 9.767,10.0148 C9.998,10.1508 10.215,10.2538 10.42,10.3208 C10.625,10.3898 10.814,10.4238 10.989,10.4238 L11,10.4238 L11.012,10.4238 C11.186,10.4238 11.375,10.3898 11.58,10.3208 C11.785,10.2538 12.003,10.1508 12.234,10.0148 C12.465,9.8788 12.662,9.7548 12.825,9.6458 C12.988,9.5358 13.192,9.3918 13.439,9.2138 C13.685,9.0348 13.846,8.9198 13.922,8.8658 C14.619,8.3818 16.393,7.1508 19.243,5.1718 C19.796,4.7848 20.258,4.3188 20.629,3.7738 C21.001,3.2278 21.186,2.6548 21.186,2.0568 C21.186,1.5568 21.006,1.1278 20.646,0.7728 C20.286,0.4158 19.86,0.2378 19.368,0.2378 L2.632,0.2378 C2.049,0.2378 1.6,0.4348 1.285,0.8288 C0.971,1.2228 0.813,1.7158 0.813,2.3068 C0.813,2.7838 1.022,3.3018 1.439,3.8588 C1.855,4.4158 2.299,4.8538 2.769,5.1718" id="Fill-4"></path>
                    <path d="M20.0493,5.9052 C17.5643,7.5882 15.6763,8.8952 14.3883,9.8282 C13.9563,10.1452 13.6053,10.3942 13.3363,10.5722 C13.0673,10.7502 12.7093,10.9322 12.2623,11.1182 C11.8153,11.3032 11.3983,11.3962 11.0113,11.3962 L11.0003,11.3962 L10.9883,11.3962 C10.6023,11.3962 10.1853,11.3032 9.7383,11.1182 C9.2913,10.9322 8.9323,10.7502 8.6633,10.5722 C8.3953,10.3942 8.0443,10.1452 7.6123,9.8282 C6.5893,9.0772 4.7053,7.7692 1.9623,5.9052 C1.5293,5.6172 1.1473,5.2882 0.8133,4.9162 L0.8133,13.9432 C0.8133,14.4432 0.9913,14.8712 1.3473,15.2272 C1.7043,15.5842 2.1323,15.7612 2.6323,15.7612 L19.3673,15.7612 C19.8673,15.7612 20.2963,15.5842 20.6523,15.2272 C21.0083,14.8712 21.1863,14.4432 21.1863,13.9432 L21.1863,4.9162 C20.8613,5.2802 20.4823,5.6092 20.0493,5.9052" id="Fill-6"></path>
                </g>
            </g>
        </g>
    </g>
</svg>