<?xml version="1.0" encoding="UTF-8"?>
<svg width="22px" height="3px" viewBox="0 0 22 3" version="1.1" xmlns="http://www.w3.org/2000/svg" xmlns:xlink="http://www.w3.org/1999/xlink">
    <!-- Generator: Sketch 51.1 (57501) - http://www.bohemiancoding.com/sketch -->
    <title>btn_expand</title>
    <desc>Created with Sketch.</desc>
    <defs></defs>
    <g id="Desktop" stroke="none" stroke-width="1" fill="none" fill-rule="evenodd" stroke-linecap="square">
        <g id="Desktop---Product-Page---Dog-Chews" transform="translate(-872.000000, -3831.000000)" stroke="#C8102E">
            <g id="FAQ" transform="translate(0.000000, 3486.000000)">
                <g id="expanded" transform="translate(295.000000, 324.000000)">
                    <g id="btn_collapse" transform="translate(578.000000, 12.000000)">
                        <g id="expand" transform="translate(0.000000, 9.487910)">
                            <path d="M20,1 L0,1" id="Line-2" stroke-width="2"></path>
                        </g>
                    </g>
                </g>
            </g>
        </g>
    </g>
</svg>