<?xml version="1.0" encoding="UTF-8"?>
<svg width="24px" height="20px" viewBox="0 0 24 20" version="1.1" xmlns="http://www.w3.org/2000/svg" xmlns:xlink="http://www.w3.org/1999/xlink">
    <!-- Generator: Sketch 51.1 (57501) - http://www.bohemiancoding.com/sketch -->
    <title>paw</title>
    <desc>Created with Sketch.</desc>
    <defs></defs>
    <g id="Symbols" stroke="none" stroke-width="1" fill="none" fill-rule="evenodd">
        <g id="arrow---red---paw" transform="translate(-12.000000, -14.000000)" fill="#FFFFFF">
            <g id="paw" transform="translate(12.000000, 14.000000)">
                <path d="M17.0251,20.0004 C16.1671,20.0004 15.3741,19.5834 14.9031,18.8844 L14.6961,18.5754 L14.6671,18.5854 C14.0061,17.8294 13.0351,17.3874 12.0001,17.3874 C11.2131,17.3874 10.4691,17.6354 9.8501,18.1044 C9.6511,18.2544 9.4711,18.4244 9.3111,18.6104 L9.2911,18.6044 L9.0851,18.9014 C8.6141,19.5894 7.8251,20.0004 6.9741,20.0004 C5.5791,20.0004 4.4441,18.9004 4.4441,17.5494 C4.4441,17.4954 4.4471,17.4424 4.4501,17.3894 L4.4751,17.0304 L4.4521,17.0234 C4.6331,13.1414 7.9491,10.0374 12.0001,10.0374 C16.0041,10.0374 19.2911,13.0704 19.5411,16.8904 L19.5241,16.8904 L19.5491,17.3864 C19.5531,17.4404 19.5551,17.4944 19.5551,17.5494 C19.5551,18.9004 18.4201,20.0004 17.0251,20.0004" id="Fill-11"></path>
                <path d="M2.634,13.3545 C1.181,13.3545 0,11.8175 0,9.9285 C0,8.0395 1.181,6.5015 2.634,6.5015 C4.087,6.5015 5.268,8.0395 5.268,9.9285 C5.268,11.8175 4.087,13.3545 2.634,13.3545" id="Fill-1"></path>
                <path d="M21.366,13.3545 C19.913,13.3545 18.732,11.8175 18.732,9.9285 C18.732,8.0395 19.913,6.5015 21.366,6.5015 C22.819,6.5015 24,8.0395 24,9.9285 C24,11.8175 22.819,13.3545 21.366,13.3545" id="Fill-3"></path>
                <path d="M15.8342,8.642 C14.1212,8.642 12.7272,6.704 12.7272,4.321 C12.7272,1.939 14.1212,0 15.8342,0 C17.5472,0 18.9412,1.939 18.9412,4.321 C18.9412,6.704 17.5472,8.642 15.8342,8.642" id="Fill-8"></path>
                <path d="M8.1658,8.642 C6.4528,8.642 5.0588,6.704 5.0588,4.321 C5.0588,1.939 6.4528,0 8.1658,0 C9.8788,0 11.2728,1.939 11.2728,4.321 C11.2728,6.704 9.8788,8.642 8.1658,8.642" id="Fill-5"></path>
            </g>
        </g>
    </g>
</svg>