<?xml version="1.0" encoding="utf-8"?>
<!-- Generator: Adobe Illustrator 16.0.0, SVG Export Plug-In . SVG Version: 6.00 Build 0)  -->
<!DOCTYPE svg PUBLIC "-//W3C//DTD SVG 1.1//EN" "http://www.w3.org/Graphics/SVG/1.1/DTD/svg11.dtd">
<svg version="1.1" id="Layer_1" xmlns="http://www.w3.org/2000/svg" xmlns:xlink="http://www.w3.org/1999/xlink" x="0px" y="0px"
	 width="367.508px" height="327.811px" viewBox="127.675 225.184 367.508 327.811"
	 enable-background="new 127.675 225.184 367.508 327.811" xml:space="preserve">
<path fill="#3C3B3C" d="M267.777,231.231c0,3.887,2.591,4.319,5.183,4.75c2.159,0.432,3.023,2.16,5.183,2.16l0,0l0,0
	c3.023,2.16,6.91,4.319,9.934,6.479c1.728,0.864,1.728,3.023,3.887,4.319c0.864,0.432,1.728,1.728,2.16,2.592l0,0
	c0.864,4.319,1.728,7.774,2.591,12.093c-0.432,3.887-0.864,7.342-1.728,11.229c-0.432,1.728-2.16,3.023-2.16,4.751
	c-1.728,4.319-2.16,8.206-4.751,12.093c-0.432,0.432-0.864,0.864-1.728,1.728c-0.864,0-2.16,0.432-2.591,1.728
	c-0.864,0-1.728,0.432-2.16,0.864l0,0c-3.023,1.728-0.864,4.751-3.023,6.91l0,0l0,0c-1.728,0.864-2.592,2.591-3.023,4.751
	c-0.432,0.864-1.728,2.591-1.728,3.887l-0.432,0.432c-0.864,0.864-2.591,1.728-4.319,2.16l0,0l0,0
	c-2.16,0.432-3.023,1.728-3.887,4.319l0,0c-1.728,2.591-2.591,5.183-3.023,8.206c-2.159,1.728-4.75,3.887-6.91,5.183
	c-3.887,1.728-7.342,2.591-9.934,5.183c-0.432,0-0.864,0-0.864-0.432c2.591-3.023,2.16-6.91,0.864-10.365
	c-0.864-4.319,0-7.342,1.728-10.366c0.432-0.432,0.432-0.864,0.864-0.864c3.887-4.319,6.911-8.206,6.911-14.252
	c0.864-4.751,0.432-9.934,0.432-14.685c0-2.16-0.432-4.751-2.16-6.911c-0.432-0.864-0.864-2.16-2.159-2.591
	c-0.864-3.887-3.887-5.615-6.911-5.615c-0.864,0-2.159,0.432-2.591,1.728c-0.864,1.728-1.728,0.432-2.591,0
	c-0.864-2.159-3.023-3.023-4.751-4.319c-7.342-6.479-15.98-7.774-25.05-5.615c-4.751,0.432-9.07,0.864-12.525,4.319
	c-2.591,0.864-3.023,4.751-6.91,4.751c-1.728-0.864-0.864-3.023-1.728-4.751c-2.591,3.023-2.591,4.319,0.864,7.343
	c0.864,1.728,2.591,1.728,4.319,0.863c2.16,0,3.887-0.432,5.183-1.728l0,0c3.887,0,7.342-1.728,10.366-3.023
	c3.023,2.159,7.342,0.864,11.229,0.864l0,0c4.319,0.432,7.774,2.159,11.229,4.751c1.728,0.864,2.591,3.887,4.75,4.319l0,0
	c0.432,2.159,0.864,3.887,2.16,5.183l0,0c2.16,0.432,3.023,2.591,4.751,4.319l0,0c1.728,2.592,1.728,6.479,3.023,9.07l0,0
	c0,0.864,0,1.728,0,2.591l0,0l0,0c-2.591,0.864-5.614,1.728-5.614,4.319c-0.432,4.751-2.592,9.502-4.751,13.821
	c-0.864,2.16-2.16,4.319-1.728,6.91c-0.432,1.728-0.864,2.591-1.728,4.319c-3.023,1.728-2.16,3.023-0.432,5.183l0,0
	c0.432,1.728,0.864,3.887,2.591,4.751c0.864,1.728,0,3.023-0.864,4.319c-0.864,0.432-2.16,0.864-2.16,2.16
	c-3.023,0.864-5.183,3.023-7.774,5.183c-0.864,0.432-1.728,0.864-2.591,2.16c-3.887,3.023-5.183,2.591-6.911-2.16
	c0-0.432-0.432-0.432-0.432-0.864c0-0.864,0-2.16-1.728-2.591c-0.864-0.864-1.728-2.16-2.591-3.887
	c-1.728-1.728-2.16-3.023-2.16-5.183c0-1.728,0-3.887-0.864-5.183c-0.864-0.864-0.432-2.591-0.432-4.319
	c0.864,0,3.887,0.432,1.728-2.16c-0.432-0.432,0-0.864,0-2.159c-0.864-3.023-0.432-6.911-3.887-8.206l0,0l0,0l-0.432-2.591
	c-0.432-4.319-3.887-6.479-6.479-9.07c-0.864-2.159-2.591-4.75-3.887-6.91c-3.023-5.183-6.478-5.183-11.229-1.728
	c-0.432,0-0.864,0-0.864,0c-5.183,0-11.229-0.432-16.412,0.432l0,0c-2.592,0-4.751,0-7.342,0l0,0l0,0
	c-2.16-0.432-3.023,0.432-4.319,2.16c-0.864,1.728-2.159,2.591-3.023,3.887l-0.432,0.432c-2.159,0.432-3.023,2.16-4.319,3.887
	c-2.16,2.591-3.023,5.615-3.023,9.502c0,3.023-2.16,5.615-0.864,8.206c-0.432,1.728-1.728,2.591-0.864,4.319
	c-0.432,0.864-0.864,1.728-1.728,2.591c-0.432,0.432-0.432,0.864-0.864,1.728c-2.591,2.591-2.591,5.615-3.023,9.502l0,0l0,0
	c-0.864,2.16-0.864,4.319-1.728,6.479c-0.864,0.864-2.591,0.864-3.023,2.591c-2.591,2.591-2.159,5.615-0.864,8.206
	c0,1.728,0.432,2.591,1.728,3.887c0.432,0.432,0.864,0.432,1.728,0.432c0.432-0.432,0.432-0.864,0-1.728
	c-2.592-4.75,0-8.206,2.159-12.525l0,0c0.432-0.864,2.16-1.728,2.16-3.023c0.432,0,1.728-0.432,2.159-0.432
	c2.592-0.432,4.319-2.591,4.751-4.751c1.728-3.887,2.591-7.342,3.023-11.229c1.728-3.887,0-7.774,2.16-11.661
	c1.728-2.591,3.887-4.319,4.319-7.342l0,0l0,0l0,0l0,0l0,0c0.864-0.864,1.728-2.16,2.591-2.591c2.591-0.864,4.751-2.591,7.342-3.023
	c1.728-0.432,3.023-0.432,3.887-2.159l0,0c0.864,0,2.159,0,3.023-0.432l0,0c2.592,0.432,5.183,0,7.774,0l0,0l0,0
	c2.16,0.864,4.319,2.16,5.615,3.023c4.751,1.728,9.07,3.023,12.093,7.342l0,0c0,0.864,0.432,2.159,0.432,2.591
	c-2.591,5.183,0,9.934,0.864,14.685c0.432,4.319,1.728,7.774,5.183,9.934l0.432,0.432c0.432,0.864,0.864,0.432,2.16,0.432
	c2.159,2.16,1.728,5.183,2.591,7.342c-0.432,0.432-1.728,0.432-2.16,0c-0.432-1.728-1.728-3.023-2.159-4.319
	c-0.432-0.432-1.728-0.432-1.728,0c0.864,1.728-0.864,3.887,1.728,4.75l0,0c2.591,2.16,4.75,4.751,7.342,6.911l0.432,0.432
	c-0.432,0.864-0.864,1.728-1.728,2.592c-1.728,2.591-4.319,4.319-7.342,3.023c-0.864-0.432-2.16-0.864-3.887,0
	c-1.728,0-2.591,0-4.319,0c-5.615,0-11.229-0.864-16.844-3.023c-0.432,0-1.728,0-2.159,0c-8.206,0.864-16.844,1.728-24.619,2.591
	c-3.887,0.432-7.342,1.728-9.501,5.183c-0.864,1.728-2.16,3.887,0,5.183c0.432,0.864,0.432,2.16,2.16,2.16l0,0l0,0
	c2.159,0.864,4.75,0.432,6.91,0.432h0.432c2.16,0,4.319-0.432,6.479-0.864l0,0h0.432l0.432-0.432l-0.432,0.432
	c2.16,0,4.319-0.432,6.479,0.432c-0.432,0.864-0.864,1.728,0,2.591v0.432l0,0c-0.864,2.159-2.591,1.728-4.319,1.728
	c-2.16,0-3.887-0.432-5.615,0.432l0,0c-3.887,0-7.342-0.432-11.229,0.864c-3.887,1.728-4.319,5.183-0.864,7.774
	c0.432,2.591,2.591,2.591,4.751,3.023c6.479,1.728,12.525,2.16,19.003,2.16c1.728,0.432,3.887,0.864,5.183,1.728
	c6.479,2.591,13.821,0,19.868,3.887c0.864,0.432,2.591,0,3.887,0c1.728,0,3.887-2.159,4.751-1.728c2.16,0.863,3.887,0,4.751-1.728
	c1.728,0,2.591,0.432,4.319,1.728c0.432,1.728,0.864,2.592,2.591,4.319c0.864,2.591,3.023,4.318,4.751,6.479c0,0,0,0,0,0.432
	c-2.591,0-4.319,2.159-5.615,4.318l0,0c-2.159,0.864-3.887,2.592-3.887,4.751l0,0c-0.432,1.728-0.864,2.592-0.432,4.319
	c0.864,2.159,0.432,4.319,0,6.91c-0.432,3.888-1.728,6.91-0.864,10.366c0,2.159,0.432,3.887,0,5.614
	c-0.864,2.159,0,3.023,1.728,4.319c0,0.432,0.432,0.863,0.432,0.863c-0.432,1.728-0.864,3.888-2.16,5.183
	c-1.728,2.592-3.887,5.183-5.183,7.774l-0.432,0.432c-2.16,0-3.887,1.728-5.615,2.592l0,0l0,0c-0.432,0.432-0.432,0.863-0.864,1.728
	c-0.432,0.863-1.728,2.159-2.159,3.023c-0.432,0-0.864,0-1.728,0l0,0c-5.183-0.432-11.229-0.432-16.412-0.864
	c-1.728,0-2.591,0-3.887-1.728l0,0c0-1.728-0.864-3.023-2.592-4.318c-1.728-1.728-2.591-3.023-4.75-3.888l0,0l0,0
	c-3.023-2.591-6.479-5.614-9.07-9.502c-3.023-4.318-6.479-8.206-9.502-12.524l0,0l0,0c-0.864-1.728-2.16-3.888-3.023-5.183
	c-0.432-0.864-0.864-2.592-1.728-3.888c-0.864-3.023-2.16-6.479,0.864-9.069c2.16-0.433,4.319,0,5.183-2.16
	c0.864-0.863,2.159-1.728,1.728-2.591c-0.864-0.864-2.16,0.432-2.591,0.432c-0.432,0-0.864,0.432-1.728,0.864l0,0l0,0
	c-0.864,0.432-2.159,0.432-2.591,0.863c-3.023,2.159-4.319,5.183-4.319,9.07c0,4.751,0.864,9.069,1.728,13.82
	c0.432,5.614,3.023,9.934,7.342,13.82c2.591,2.592,4.751,5.184,7.342,7.343c3.887,3.023,5.615,7.774,9.07,11.661
	c1.728,2.159,3.887,3.023,5.615,3.887c0,2.16,0.432,4.751,2.16,5.184c0.864,0.432,3.887,0.863,5.183-0.864l0,0
	c2.591-0.432,5.183-1.728,7.774-2.159c0.864,0,2.592,0,3.023-0.433c0.864-0.863,2.591,0,4.319-0.432
	c3.023-1.728,5.615-0.432,8.206,0.432c4.319,2.16,5.183,0.864,5.183-3.887c0-0.432,0-0.863,0-1.728l0,0
	c0.432-2.592,2.591-3.023,3.887-4.751c2.159-2.591,5.183-4.751,4.75-8.206c0-2.591,0-5.183,0-7.774
	c0.432-1.728,0.864-2.591,2.16-3.887c2.591-1.728,2.591-3.887,0.864-5.614c-0.432-1.729-0.864-3.888-2.16-5.184l0,0
	c0-0.863,0-1.728-0.432-2.591c0-2.16,0-4.319,0-5.615c0-2.159,0.432-3.887,2.591-3.022c0.864,0,2.591,0,2.591-1.729
	c0.432-2.159,0.864-3.887,0.864-5.614c1.728-0.863,2.16-4.319,4.751-2.592c2.591,3.023,6.479,5.615,9.934,7.774
	c1.728,1.728,3.887,2.592,5.615,4.319c2.591,1.728,4.319,2.159,2.591,3.887c-2.591,2.16-3.023,5.183-5.183,7.774l0,0
	c-0.864,2.159-0.432,3.887,0.864,4.751c0,0.432-0.432,1.728-0.432,2.159c-3.887,6.479-2.159,12.525,0,19.004
	c0.864,0.863,0.432,3.023,2.16,4.318c1.728,3.888,1.728,7.774,3.023,11.662l0,0l0,0c0.432,2.159,0.432,3.887,0.864,5.614
	c0,1.728,0,2.592,0,3.887c0,2.16-0.432,4.319,2.159,5.184c0,0.863-0.432,2.159-0.432,3.022l0.432,1.296
	c-2.592,2.592-2.592,5.184-2.592,7.774c0,3.888,0.432,7.343-0.864,10.365l0,0c0,0.433-0.432,0.433-0.432,0.864l0,0
	c-2.591,2.159-3.023,6.479-6.911,7.774c-4.319,2.591-9.07,3.887-13.82,5.183c-4.319,0.863-6.911,4.319-7.774,8.206
	c0,2.159,0,3.887,1.728,4.751c0.432,0.432,0.864,0.863,2.16,0.432c0.864-0.863,0-1.728-0.432-1.728
	c-1.728-2.159-0.432-2.592,0.864-3.023c2.592-0.432,5.615-0.863,8.206-0.863c4.319,0,7.342-2.16,9.934-4.319
	c2.159-2.592,4.75-5.183,6.91-7.774l0,0c1.728-0.863,4.751,0.433,5.183-2.591c1.728-2.16,1.728-4.751,0.864-7.343
	c0.432-2.591,1.728-5.183,1.728-7.774c0.432-1.728,0.864-3.887,0.432-5.614c0-2.159,0-3.023,2.16-3.887
	c2.159-0.433,2.159-2.16,0.864-3.888c-0.432-0.863-0.864-2.591-1.728-3.887c-2.592-5.183-3.023-11.229-6.479-15.98
	c0-0.863-0.432-1.728-0.432-2.592c0.432-0.432,0.432-0.863,0.864-0.863c3.887-2.159,3.887-2.592,2.591-6.91
	c0-0.432-0.432-0.864-0.432-1.728c-2.16-5.183-4.319-9.934-5.615-15.117c0-0.432,0-0.863,0-0.863
	c0.432-0.864,0.432-3.023,2.591-3.023c2.16,0.432,3.023,0,3.023-2.159c0-2.592,1.728-4.319,2.591-6.479l0,0
	c5.615,0.863,11.229,3.887,16.412,6.91c-0.432,2.592,0,5.183,0,7.774l0,0c-0.432,1.728,0,3.023,1.728,4.318l0,0
	c2.16,2.16,0.864,5.615,4.319,6.911c0.432,0.863,0.864,2.591,1.728,3.887c0,1.728,0.432,2.592,0.864,4.319
	c0.432,2.159,0.432,4.318,3.023,4.751l0,0l0,0l0.432,0.432c0.432,2.159,3.023,2.591,4.751,4.318
	c2.159,3.888,5.615,5.615,9.501,7.774l0,0l0,0h0.432l0,0l0,0c2.159,2.16,4.751,3.023,7.342,4.319l0,0
	c0.432,1.728,2.591,2.159,0.864,4.751c2.159-2.592,3.023-0.864,4.751,0c0.432,0.432,1.728,0.863,2.159,2.159
	c0.864,1.728,2.16,3.887,3.023,5.183c2.592,4.319,3.023,9.07,1.729,14.253c-0.433,2.159-0.433,4.319-0.433,5.614
	c0,0.433,0,0.433-0.432,0.864c-0.432,0.863-0.432,2.159-0.864,3.023c-0.863,1.728-3.023,2.159-4.75,3.023
	c-0.864,0-2.16,0.432-2.591,1.728c-3.023,0.863-3.887,5.183-6.91,6.479l-0.432,0.432c-1.728,0-3.023,0-4.751,0
	c-2.591-0.432-6.479,2.159-6.91,4.751c-0.432,2.591,0.864,3.887,2.591,5.183c-0.432-5.183,0.432-7.343,4.319-8.206
	c1.728-0.432,3.023-0.864,4.751-0.432c0.432,0.432,0.864,0.432,2.16,0.432c3.887,0.863,7.774,0,10.365-3.023
	c0.864-0.863,2.159-1.728,3.023-2.591l0,0c4.319-1.729,7.343-4.319,7.774-9.07c0.432-0.864,0.432-2.159,0.432-3.023
	c0.864-4.319-0.863-8.206,0-12.957c3.023-2.159,3.023-5.614,0-9.934c-0.432-2.591-2.592-4.319-4.751-5.614
	c-0.432,0-0.432,0-0.863-0.433c-2.16-2.159-2.16-5.183-4.319-7.342l-0.432-0.432c-1.728-2.592-3.887-4.319-6.479-5.615
	c-0.864-0.432-2.16-1.728-3.023-0.432l0.432-0.864c-0.432-2.591-2.591-2.159-4.319-2.591c-6.91-2.159-6.91-2.159-7.342-8.206
	c0-0.864-0.432-2.159-1.728-2.592c-2.16-4.318-6.479-6.479-9.502-9.502c0,0.433,0.432,0.433,0.432,0.864
	c0-0.432-0.432-0.432-0.432-0.864c-0.432-1.728-3.023-1.728-2.159-3.887c2.159-0.863,3.023-2.591,2.591-4.751
	c-0.432-2.591,0.864-2.591,2.591-2.159c3.023,0.863,5.615,1.728,9.07,2.591c4.751,1.729,9.934,2.16,14.252,5.184
	c2.16,2.591,3.887,5.183,6.91,6.91c0,0,0,0,0.433-0.432c0,0,0,0-0.433,0.432c0.864,0,2.592,0,2.16,1.728
	c0,0.432-0.432,0.863,0,0.863c2.591-0.863,3.887,1.728,5.614,2.592c0.864,0.432,2.16,0.863,3.023,0h0.432l0,0
	c0.433,0.432,0.433,1.728,0.864,1.728c4.751,2.159,9.069,5.183,14.253,6.479c2.591,3.023,6.91,4.319,9.934,6.91
	c0.863,0.864,2.591,1.728,4.318,0.433c0.433-0.433,1.728-0.433,2.16-0.864l0,0c3.887,0.864,7.342,2.159,11.229,3.887
	c5.615,1.728,11.229,3.023,17.276,4.319c2.159,0.864,4.751,0,6.91,0l0,0c2.16-0.432,3.888-0.863,5.615-0.863
	c5.614,0.863,12.093,0.432,17.707,0.432c4.751,0,9.502,1.728,13.821,0.863c1.728,0,3.023,0,3.887-2.159l0,0c1.728,0,3.023,0,4.751,0
	l0,0c3.023,0,6.479,0,9.502-2.159c2.592-0.433,4.751-0.864,7.342-1.728c5.184-0.433,11.229,0,15.117-3.023
	c6.479,0.863,13.82,0.863,17.708,7.342c1.728-2.591,1.728-4.318-1.729-5.614c-4.318-2.16-9.069-3.023-13.82-3.888l0,0
	c-3.023-2.159-6.91-2.591-11.229-1.728c-7.342,2.16-14.685,2.16-22.459,1.728c-2.591-0.432-5.614-0.432-8.206-2.159
	c-1.728-0.863-4.318-2.159-6.478,0c-6.911,1.728-13.821,3.023-19.868,4.751c-2.159,0-4.318,0-5.614-0.864
	c-2.159-1.728-4.751-2.591-7.774-2.591c-7.774-2.592-16.412-1.728-24.187-2.159c-2.591-0.864-5.183-0.864-7.342-2.592
	c-1.728-1.728-3.887-2.159-6.479-2.159c-6.91-2.16-13.82-4.319-21.163-5.184c-0.432-1.728,0-3.887-1.728-4.75
	c2.592-0.433,5.183,0,7.774,0c6.91,0.863,12.524,0.863,18.571,0.863c4.319,0,9.07-0.432,12.957-0.432
	c4.751,0,9.934,0.432,14.685-0.432c2.592,0.432,5.183-0.433,7.774-0.864c4.318,0,7.773-1.728,11.661-2.592
	c5.183-1.728,10.365-2.591,15.98-5.614c8.206-3.023,15.979-9.069,21.595-16.412c7.342-5.614,11.661-14.253,15.98-22.459
	c0.863-2.591,3.022-5.183,3.022-8.206l0,0c4.751-12.093,5.615-24.618,2.16-38.007c-0.864-4.751-0.864-9.502-3.888-13.821
	c-2.591-5.615-5.183-11.229-9.934-15.116c-2.591-4.319-6.479-7.342-9.934-9.934c-7.342-5.614-15.116-11.229-24.187-14.684
	c-4.751-3.023-9.934-4.751-15.116-6.479l0,0c-12.525-4.319-25.05-3.887-38.438-5.183c0,0,0,0-0.433,0c0,0,0,0,0.433,0
	c-0.433,0-1.728,0-2.16,0c-1.728,0-3.887,0.864-4.318-0.864c-0.433-1.728,2.159-0.864,3.023-2.591
	c2.159,1.728,4.318-0.432,5.614-0.432c2.592,0,4.751,0,7.342,0c3.023,0,5.615,0.432,9.07,0.864c3.023,0.432,5.614-0.432,8.206-1.728
	c3.887-2.159,7.342-2.591,11.229-2.591c2.591,0,5.614,0,8.206,0l0,0c3.023,0,5.614,0,9.069,0c3.023,0.432,4.319-0.864,4.751-4.319
	c0.864-0.864,2.592-0.864,4.319-0.864c2.592,0.432,5.614,0.432,8.206,0.864c4.751,0.864,9.934,2.591,14.685,0
	c3.023-0.432,6.479,0.432,9.502,1.728l0,0c0.863,0.432,2.159,0.864,3.887,0.864c1.728,0.432,2.592,0.864,4.319,0.864
	c2.159,1.728,4.318,1.728,6.479,2.16c2.591,0.864,5.183,1.728,7.774,0.864c0.432,0,0.432,0,0.863,0c2.592,0,4.319-2.591,6.479-3.887
	c0.432,0,0.863,1.728,2.159,0c1.728-0.432,2.592-0.432,4.319-0.864l0,0c2.159,0,4.319-0.432,6.479-2.159
	c0.863-0.864,1.728-2.16,0.432-3.023c-0.863-0.864-1.728,0.432-2.591,0.864c-0.433,0.432-0.864,0.432-1.728,0.864
	c-2.592,0.432-4.751,0.432-7.343,0.864c-7.774-2.16-15.116-4.751-23.322-6.91c-2.16-0.432-4.751-1.728-7.343-1.728
	c-2.159-0.432-4.318,0-5.614-0.432l0,0l0,0l0,0l0,0l0,0l0,0l0,0c0-1.728-0.864-1.728-2.159-1.728c-8.207,0-16.413,0-24.187,0.864
	l0,0c-0.433,0-0.864,0-0.864,0c-5.183,0.432-11.229,1.728-16.412,2.16c-0.432,0-0.432,0-0.863,0
	c-7.774,0.432-15.98,3.023-23.755,4.75c-0.432,0-0.863,0-2.159,0c-4.319-0.864-8.206-0.432-12.094,0.432l0,0
	c-0.863,0.432-2.159,0.432-3.022,0.864c-2.592,0-3.888,0-4.319,0c-4.319,0.432-9.07,2.16-12.525,4.319
	c-2.591,0.864-5.183-0.432-7.342,0.864c-3.023,2.591-7.343,3.887-11.229,5.183c-2.159,0.864-5.183,0.432-6.91,3.023
	c-2.592,0.864-4.319,3.887-6.91,4.751c-9.502,3.023-18.572,7.342-27.21,9.934c-0.864,0.864-2.16,0.864-3.023,0.864
	c-0.864,0.432-1.728,0-2.159-0.864l0,0c0.863-1.728,0.863-2.591,0.863-4.319s0.432-2.591,2.16-3.887
	c3.887-3.023,7.774-5.615,11.661-9.07l0,0c1.728-0.864,2.591-1.728,3.887-3.023c0.864-2.159,0-4.75,2.16-6.91
	c0.432-0.864,0.864-1.728,1.728-2.591s2.16-2.591,2.591-4.319c2.159-3.023,3.887-6.479,4.319-9.934c0.432-2.16,2.159-4.751,0-6.911
	c-0.433-1.728-0.864-3.023-1.728-5.183c0-0.432,0-0.432-0.433-0.864c-0.432-2.592-0.863-5.183-1.727-7.774
	c0.432-3.887-2.16-6.91-3.023-9.934c-1.728-4.751-5.183-6.91-9.502-7.774c-3.023-2.591-6.91-2.591-10.365-2.591l0,0l0,0
	c-0.432,0-0.864,0.432-0.864,0.432c-1.728-1.728-3.887,0.432-5.183-0.432c-0.432,0-0.864-0.432-2.159-0.432
	c-4.319-0.864-5.183-3.887-2.16-6.911c0.432-0.432,0.864-0.432,0.432-0.864C269.073,226.048,267.777,228.64,267.777,231.231z
	 M311.398,528.809L311.398,528.809L311.398,528.809L311.398,528.809z M385.253,489.506L385.253,489.506L385.253,489.506
	L385.253,489.506L385.253,489.506L385.253,489.506L385.253,489.506z M149.869,387.146L149.869,387.146L149.869,387.146
	L149.869,387.146z M246.614,300.334L246.614,300.334L246.614,300.334L246.614,300.334z M453.062,356.481L453.062,356.481
	L453.062,356.481L453.062,356.481z M393.027,308.109L393.027,308.109c0.432,0.432,0.864,0.864,2.16,0.864
	C394.755,309.404,393.459,309.404,393.027,308.109z M402.098,295.583h0.432H402.098z"/>
</svg>
